Italian Polls
…
## Parsed with column specification:
## cols(
##   .default = col_double(),
##   date = col_date(format = ""),
##   firm = col_character(),
##   n = col_integer(),
##   source = col_character()
## )

## See spec(...) for full column specifications.

poll_csv

## # A tibble: 2,242 x 21
##    date       firm      n    sd source FIPDLFI   IdV    LN   UdC LADESTRA
##    <date>     <chr> <int> <dbl> <chr>    <dbl> <dbl> <dbl> <dbl>    <dbl>
##  1 2006-10-02 EKMA     NA    NA <NA>      28     3.5   6     4         NA
##  2 2006-10-13 EURO    NA    NA <NA>      29     2.3   4.7   5.2       NA
##  3 2006-11-14 EKMA     NA    NA <NA>      28     3.5   6     6         NA
##  4 2006-11-20 UNIC    NA    NA <NA>      28.1   1.7   5     7.6       NA
##  5 2006-12-05 EKMA     NA    NA <NA>      30     3     5     6         NA
##  6 2006-12-20 EURO    NA    NA <NA>      31.5   2.4   4.8   3.9       NA
##  7 2007-01-08 EURO    NA    NA <NA>      32.6   2.3   5.3   4.1       NA
##  8 2007-01-09 EKMA     NA    NA <NA>      30     3.5   5     5.5       NA
##  9 2007-02-02 EKMA     NA    NA <NA>      28     4     5     6         NA
## 10 2007-02-21 UNIC    NA    NA <NA>      29.3   2.8   4.3   7.2       NA
## # ... with 2,232 more rows, and 11 more variables: PD <dbl>, M5S <dbl>,
## #   FdI <dbl>, NCDUdC <dbl>, SI <dbl>, AP <dbl>, MDP <dbl>, LeU <dbl>,
## #   E <dbl>, I <dbl>, NcI <dbl>
…
